br\edu\unipampa\controller\ControllerSingularidade.class
br\edu\unipampa\repository\SingularidadeRepository.class
br\edu\unipampa\repository\LocalizacaoRepository.class
br\edu\unipampa\controller\ControllerLocalizacao.class
br\edu\unipampa\model\Localizacao.class
br\edu\unipampa\BoemixsApiApplication.class
br\edu\unipampa\model\Singularidade.class
